cheatrecord\UIMain$1.class
cheatrecord\DBEditor$3.class
cheatrecord\DBEditor$2.class
cheatrecord\DBFilter.class
cheatrecord\DBShow$2.class
cheatrecord\DBFilter$4.class
cheatrecord\DBShow$3.class
cheatrecord\DBAdd$1.class
cheatrecord\UIMain$4.class
cheatrecord\DBFilter$2.class
cheatrecord\DBShow$1.class
cheatrecord\UIMain.class
cheatrecord\DBEditor.class
cheatrecord\DBFilter$1.class
cheatrecord\DBShow.class
cheatrecord\UIMain$3.class
cheatrecord\DBAdd$2.class
cheatrecord\DBEditor$1.class
cheatrecord\UIMain$2.class
cheatrecord\UIMain$5.class
cheatrecord\DBFilter$3.class
cheatrecord\DBConector.class
cheatrecord\DBAdd.class
cheatrecord\UIMain$6.class
